{
"apikey": "9121e2f3-14f4-404d-8216-1735a2b6a2e4",
"signature": "Y4gND9ZWrvQQp8XP5OWN5XqlHVjfqMMHcFFOOQKbo70FAM-Rh2qJG47hC6WLWBsHzs0zLx5DHC2mYYa4UOYJIUUYTnA5j7rUYa9xa6BdGZ55I2tUJ8lE2qC_4M7JW63o_feB9bhqT0--6VWGrfNNsrXcBKqqALG9e2RQC4hJPAjdJ_1kS6NJN_7rPqFzcnR72M32KmNr9vXWFksk16PQG-gooAERW3Z3c9MeS9mayxLKLgKb6Hdu-mdxA7pVIa0l_rtwcvhrEC0KXGhonFf-kdPskX8d-5BJbLg-FJUYHsw-n4Uwv5Rq54uqKPM74ycN5YK4xmcya1xM6nb8jr-akCdokZj-SlJgucWrAsj0Juu_BMphBCaTL_0PWWvESztt0WVSvMcFhFC9NxK2YtNlOEy6VCXJ2NswlQ3EMfa74CBQbDUUKB3ZfZtPJi-xQaKQhifPiCzPqbOTthVId6_EYZgt6VkkdxbVP4Ut2_BrKmMz0R1rB7dzP2HTXWbfzSl1bb_Ql2XR7xzQPJ2NqVHUBnOaFNzmm30TZd__2YLdkfxIsGP09Fh33GlSIWr2jxA-1wsVgj6Rj4VnxQTmLj8rLkPAaFZsGZK8VfYrilOerxvtOIxssbsLrDQdEX-if_iGVAdReFAnqRQ2VHYHlFoolRw3XiSgKxvixBvPBaEc0vY",
"timestamp": "1587364765868",
"Private key" :"MIIJQwIBADANBgkqhkiG9w0BAQEFAASCCS0wggkpAgEAAoICAQCtyGjdUuNsK25RhOOWj9WazOwMyDfQ-IoN46-HURlBi11zJz3qGjZw_dawqoNSQLAiR1y-DMiRDlDhrW3pKE3RfroSm4g_3nsIhyshav2sK-yU-ARuZDqncy0B8XWxKMGrgI8nVQP0x7-xDc3kSk9y8D00uc5u3tfgFZAThag5mXINoQf6vS-RB2qJaftR0A0cnIrVvYxPXyH0fYOjNATy0U2T9ZHJllxeAebMK09jO1yBYuEIwVO61nOXh4ciLtOVehI8M6PsmHuYjf6i2PPfBrtNcZ80uxqmD6VWVg0TZkIysnTMybBRyR-acDNTiGWdXV1tDMlwkZfRfUr-kD-b8IrWfR2PA6DdVV9l33bNlmdH6mPlPOxG8iogx4p5kw_9dLVZASfqRPKGgst4_mAUN43Qq2rFKqxLN_5B3rS0WcfgHESLJ1X72gmKgwJrXjLIRXL_IRHtTRtsnvmDWl6gz72JzgiZvssnwyfoTs2maiIfAWoxg5eGxovj4WQbVolJP1_Qw66xGKkgSha5IltEia4qjZVFnc9yig8kZlDMp2UdO8kRhssUm1iKJ5UXlq2rIb4b_URw7FaY0uGMlgt7KSzGlrqDMteTT4h_PaUQ0dTiKN7yVYIYVw_4B-BaYWDE4m9lchAqQtRBilloQeSXaiFm0bu_ParI_QqNYE2J4wIDAQABAoICAGBSdbU-7SkWhYYPlynrvWSY8rk-_JkKOVLrgW4KSGpo-boK5SltsAE-4RF44WLk0fud_Eymv0CPY8tCmmoiWcelazNHG-TyxtT6PrC-Ia6dhfsn4STizxPjJe4uzKIOShJqJm6Rk6jIUnqrgRRpD9JQUEx6NG6Fe7gLm5kGezC52Vquh8K1u7iyGJ3jrVYycCIMrnM8JZoUy7g9HYqHGbsQweQht9W5TqcYfLlrxAvnaiWZDcwRg_xKQzWY_BC5TbNLPvI5WUGZXuA2zA2tHLbgf060jJ7omiOzBlxtQ8Ad7NE20sBzhhQ-2xJ54CkLr-7iQhdggAKx4ClQPhINGAPEH4-FflddvYDsOEqyqvkAsc-a-Oh_Vt1oFM_vZscE8ELEdjiRhv7qWOZ4vCsmYOYYKGPq5SG0nAcep8ms3AagdHCt0g4ii64u4KBo0dsBU3Lt-7EX9MFe78Gzs7oxY7_f0zsK_iQ1JmYYnRaEnbbIUNaJF1ccerpGrUabwrrpCK9sRlgqFdQUY2aSiTDZsrudKQOcMhfDn3K8v1iABqlaPgxuNFccSDC4MhIsOsg8LlVdoixePw6iWcoQZcOtfvFqpB3P2I6g8JTvyApf9F_XICimOVf6oTgU3ReTrZsUD7iPWhCswQltrh659slS0SjHSJyb30f0KZKV0JaWtr8BAoIBAQD9194GBB5lz4wp1fjqH7mxeZTnLIArhzKv7bI7hg0hXOocIRSwrbHP0n8IS_APwzrkvXkM2YbTVpYHJCoIH9iGR0yuyPGUq6IxbI0pPo3T2Fx2gvF6OIMez6qAlUsQ3DKAClZcteM2imYxV9ndtKaAC24cRHtzi6oAcnlaQRVdz5gp7y4uDixTWei8w5XifYV16AmMdDZWAikwMBk36CAxQ2ItRXEW6uRvCdd52D_cN4SdmwyucvFMvBaeSiNoMb-ahBgch-ASfuJuCVVf7aHOslwAPF3uWP1WNSn2nHUKbCnebodxmcTitfwZ8Pf6ypCFYCV-wHCvKkf5WHP1-GGBAoIBAQCvQmdOyBsYOfQYiQgS6Bw72LPjUqiA7QNLujyFudR8-waDtbpllKcNJAbDIdND33OOr5XDG7VVL-vKOiB86xwGgSOEzgjgb44RHy0GFNQCzkB4ZbCAI3QQR5-7FRH9goGuSmfeCxvvvbTT3-QlFPHOHN9ote_EzvlMmMFTEU0cT5wW7bthrhdHiV24wMegOO6AI4RNUlYEo0m68VnvMRgyc7AwDDgJxtMCdf3-OGVeeUTFcTWZ2ZcC3UtzwmD881889CD2y3c3jWZktP-J9XsuAwQt4OKWhnyaeYEVEc-iwKzdzTV7ydutNPRJY7Ndljh6APyCUgcFgloorgB44FVjAoIBAQDvKN0EKglBvwO9vt1gKDfaIETMcT7ow95bpsWQE0J3toTTr89AjsXCmf4ZoQIyt6vbKzDLjH7cyu1bGRWIxghIqxBydNw3SGXtzupIe6lAeM7U0ZYVovzWoK1xrDcnUW8694JaovvJvSd_QdgAbF2asiox88ukF2g6N6BiCoPI-PfSOoj112Cnv0Pp5RRoaf6-Ebo9XJh8_Fg2EHsSE1-RSn1LTeu4veIvQ8SCBd5U6vHFU_nkumLh-ywMQqmNV6HAQMg-yT2x714CckS_trIGfkDz7-xHzgwRltFMiigzg6kG6ngt7cR0HSXCgygAX60-HFH3U_RW9K0PHelTS4sBAoIBACRFLtIcEZdq7vxg553aEXXFPD1QbvT3mBYE_d-C_Nm8rbV2V5QMNqI-kXOyvWEvjl-6MNlHE7kEiNy6ON0BXzRtZ2dlqGqiS5l5hTzb9KB8BNWl3eg27h8sY385Nhbr-mCSn3pRfD-aWCD9Fd8ivYQ1b3rhJDTrzKYwetnxG68_PoN0QbJOcBzq7c19gBLFlX5JW2kRICInlOuuZTleRK60SIM5FCPZ1POObbk9_KSXnkbqTfiAEoOSPro_QQk4aL5Zm7TXmN2TUtyGpNftSMfV8fh4sQwL2x-xA6jTndAF5gClJmtu9BqdeezySD2XCCsfpyJlTXSzbGs8z3Y0nxcCggEBAJxIKp03DJJcG7_8D4wHK2OUlrrXkExej2XvnQU3h-DT2wvIPAwTBQuq27gY89tuEnLH-Z27J-ljdViI1brTBZWUXJBPnbphcFJGeJJP1_lQHoUwd5e9CI-G4MYImZhGXwJvOth7psJ45_WElSbh-6SldCXEFNERYsXDli2Yh9xiDxlF3rh-RUfjWmd0Ns-qQM6VEN8W2gXOHFr0keJ2SZ5uYCdexij3VVYdAZtMgdwWPy8KpnWWK0yER0evG6hw6jEjPvW_EruyIZ0Y7niOsGCeEnXvlbmVBPlCkaoN2RUFOIunVDTgGlj1ulVZIP9q8RWVxh83Xkt_XlMc-L0EcBE",
"Public key" :"MIICIjANBgkqhkiG9w0BAQEFAAOCAg8AMIICCgKCAgEArcho3VLjbCtuUYTjlo_VmszsDMg30PiKDeOvh1EZQYtdcyc96ho2cP3WsKqDUkCwIkdcvgzIkQ5Q4a1t6ShN0X66EpuIP957CIcrIWr9rCvslPgEbmQ6p3MtAfF1sSjBq4CPJ1UD9Me_sQ3N5EpPcvA9NLnObt7X4BWQE4WoOZlyDaEH-r0vkQdqiWn7UdANHJyK1b2MT18h9H2DozQE8tFNk_WRyZZcXgHmzCtPYztcgWLhCMFTutZzl4eHIi7TlXoSPDOj7Jh7mI3-otjz3wa7TXGfNLsapg-lVlYNE2ZCMrJ0zMmwUckfmnAzU4hlnV1dbQzJcJGX0X1K_pA_m_CK1n0djwOg3VVfZd92zZZnR-pj5TzsRvIqIMeKeZMP_XS1WQEn6kTyhoLLeP5gFDeN0KtqxSqsSzf-Qd60tFnH4BxEiydV-9oJioMCa14yyEVy_yER7U0bbJ75g1peoM-9ic4Imb7LJ8Mn6E7NpmoiHwFqMYOXhsaL4-FkG1aJST9f0MOusRipIEoWuSJbRImuKo2VRZ3PcooPJGZQzKdlHTvJEYbLFJtYiieVF5atqyG-G_1EcOxWmNLhjJYLeyksxpa6gzLXk0-Ifz2lENHU4ije8lWCGFcP-AfgWmFgxOJvZXIQKkLUQYpZaEHkl2ohZtG7vz2qyP0KjWBNieMCAwEAAQ",
"url":"/PWS/restfulapi/accounts/pendingTransaction/csv?apikey=9121e2f3-14f4-404d-8216-1735a2b6a2e4@timestamp=1587364765868",
"Validation": "true"
}