{
    "uploadReferenceNo": "PA00000002",
    "paymentRecordNo": [
        "PA00000002"
    ],
    "paymentComplete": "Y",
    "locale": "en",
    "fileCount": "1",
    "userId": "upp02",
    "errors": [],
    "successFlag": "Y"
}