{
    "successFlag": "Y",
    "warningList": [
        {
            "warningCode": "W00003",
            "warningMessage": "The Risk profile assessment result of some clients associated with this account is expired"
        }
    ],
    "errorList": [],
    "accountId": "WHK16000531",
    "acccountOrderId": "ST0018379",
    "userId": "test005"
}